%YAML 1.1
%TAG !u! tag:unity3d.com,2011:
--- !u!114 &11400000
MonoBehaviour:
  m_ObjectHideFlags: 0
  m_CorrespondingSourceObject: {fileID: 0}
  m_PrefabInstance: {fileID: 0}
  m_PrefabAsset: {fileID: 0}
  m_GameObject: {fileID: 0}
  m_Enabled: 1
  m_EditorHideFlags: 0
  m_Script: {fileID: 11500000, guid: 7fa658b23fad46bb90ee02190cb90368, type: 3}
  m_Name: Normal
  m_EditorClassIdentifier: 
  _difficultyDef:
  - _timeBetweenSpawn: 8
    _hpModifier: 1
    _speedModifier: 1
  - _timeBetweenSpawn: 8
    _hpModifier: 1.1
    _speedModifier: 1
  - _timeBetweenSpawn: 8
    _hpModifier: 1.1
    _speedModifier: 1.1
  - _timeBetweenSpawn: 7.5
    _hpModifier: 1.1
    _speedModifier: 1.1
  - _timeBetweenSpawn: 7.5
    _hpModifier: 1.2
    _speedModifier: 1.1
  - _timeBetweenSpawn: 7.5
    _hpModifier: 1.2
    _speedModifier: 1.2
  - _timeBetweenSpawn: 7
    _hpModifier: 1.2
    _speedModifier: 1.2
  - _timeBetweenSpawn: 7
    _hpModifier: 1.4
    _speedModifier: 1.2
  - _timeBetweenSpawn: 6
    _hpModifier: 1.4
    _speedModifier: 1.2
  - _timeBetweenSpawn: 5
    _hpModifier: 1.5
    _speedModifier: 1.2
